D:\storeproject\src\main\java\com\mycompany\storeproject\poc\TestUpdateProduct.java
D:\storeproject\src\main\java\dao\ProductDao.java
D:\storeproject\src\main\java\ui\TestDialog.java
D:\storeproject\src\main\java\com\mycompany\storeproject\poc\TestDeleteProduct.java
D:\storeproject\src\main\java\model\Product.java
D:\storeproject\src\main\java\database\Database.java
D:\storeproject\src\main\java\ui\ProductPanel.java
D:\storeproject\src\main\java\dao\DaoInterface.java
D:\storeproject\src\main\java\com\mycompany\storeproject\poc\TestSelectProduct.java
D:\storeproject\src\main\java\com\mycompany\storeproject\poc\TestConnection.java
D:\storeproject\src\main\java\com\mycompany\storeproject\poc\TestInsertProduct.java
